<svg width="74" height="74" viewBox="0 0 74 74" fill="none" xmlns="http://www.w3.org/2000/svg">
    <mask id="we0dn47sua" style="mask-type:alpha" maskUnits="userSpaceOnUse" x="0" y="0" width="74" height="74">
        <rect width="74" height="74" rx="14" fill="#D9D9D9"/>
    </mask>
    <g mask="url(#we0dn47sua)">
        <path fill="#151F32" d="M-1-2h76v77H-1z"/>
        <path d="M-1.893 79.509c0-11.256 9.124-20.38 20.38-20.38h39.24c11.255 0 20.38 9.124 20.38 20.38 0 6.97-5.65 12.62-12.62 12.62h-54.76c-6.97 0-12.62-5.65-12.62-12.62z" fill="url(#8nkmnijhib)"/>
        <path d="m18.915 60.034 19.455 51.368 19.455-51.368h-38.91z" fill="#CFD8DC"/>
        <path d="M40.994 110.313 21.539 61.247c-.336-.841-1.161-1.455-2.157-1.604-.995-.142-2 .194-2.638.883L5.624 72.792c-.604.669-.77 1.567-.438 2.371.333.804 1.116 1.397 2.067 1.564l8.804 1.556-4.67 4.116c-1.007.893-1.085 2.313-.18 3.288l25.012 26.986c.525.574 1.316.906 2.151.903a3.126 3.126 0 0 0 1.353-.309c1.178-.583 1.713-1.827 1.271-2.954z" fill="url(#xhcd4kc2rc)"/>
        <path d="m35.746 110.315 19.455-49.066c.337-.84 1.161-1.456 2.157-1.609.995-.143 2.002.193 2.64.883l11.118 12.266c.605.67.772 1.57.439 2.374-.333.805-1.117 1.398-2.068 1.566l-8.805 1.556 4.664 4.116c1.01.89 1.091 2.312.19 3.288L40.52 112.675c-.525.574-1.317.906-2.152.903a3.125 3.125 0 0 1-1.353-.309c-1.177-.583-1.712-1.827-1.27-2.954z" fill="url(#nqx4cuwokd)"/>
        <path fill-rule="evenodd" clip-rule="evenodd" d="m38.492 65.007-19.577-4.465 6.043 20.844 13.534-16.38z" fill="url(#tzd392oj8e)"/>
        <path d="m26.128 76.06-7.2-15.925h2.768l5.955 13.155-1.523 2.77z" fill="url(#fzctmgtinf)"/>
        <path d="m50.499 76.06 7.2-15.925h-2.77L48.976 73.29l1.524 2.77z" fill="url(#ba2od0k58g)"/>
        <path fill-rule="evenodd" clip-rule="evenodd" d="m38.09 64.605 19.683-4.063L53.068 81.9 38.09 64.605z" fill="url(#zfnr8loewh)"/>
        <path d="M21.695 52.523h33.352L38.37 64.788 21.695 52.522z" fill="#B0BEC5"/>
        <path d="M27.374 51.599a4.48 4.48 0 0 1 4.48-4.48h14.303a4.48 4.48 0 0 1 4.48 4.48v11.239a2.56 2.56 0 0 1-2.56 2.56H29.933a2.56 2.56 0 0 1-2.56-2.56v-11.24z" fill="url(#rky7wt8yyi)"/>
        <path d="M28.067 51.51a4.48 4.48 0 0 1 4.48-4.48h12.825a4.48 4.48 0 0 1 4.48 4.48v11.356a2.56 2.56 0 0 1-2.56 2.56H30.627a2.56 2.56 0 0 1-2.56-2.56V51.51z" fill="url(#j8gnxop1bj)"/>
        <g opacity=".65" filter="url(#dxl9ts10yk)">
            <ellipse cx="37.893" cy="49.032" rx="14.285" ry="2.894" fill="url(#82w05y8z9l)"/>
        </g>
        <path d="m55.046 52.523 2.779 7.512-8.338 14.57L38.37 64.79l16.676-12.267zM21.694 52.523l-2.78 7.512 8.339 14.57L38.37 64.79 21.694 52.522z" fill="#ECEFF1"/>
        <ellipse cx="37.468" cy="52.61" rx="17.445" ry="5.062" transform="rotate(-1.862 37.468 52.61)" fill="#000" fill-opacity=".2"/>
        <path d="M13.648 19.683c-.509-5.82 3.796-10.95 9.616-11.46L47.206 6.13c5.82-.51 10.95 3.796 11.46 9.616l2.206 25.22c.61 6.984-4.555 13.14-11.54 13.752l-19.726 1.726c-6.984.61-13.14-4.556-13.751-11.54l-2.207-25.22z" fill="url(#k53j9h8xrm)"/>
        <path fill-rule="evenodd" clip-rule="evenodd" d="m15.744 43.637.11 1.266c.612 6.984 6.768 12.15 13.752 11.54l19.727-1.726c6.984-.611 12.15-6.768 11.539-13.752l-.21-2.403C59.01 46.033 52.677 51.9 44.65 52.603l-11.201.98c-7.602.665-14.513-3.497-17.706-9.946zM50.777 6.422c4.05 1.048 7.227 4.453 7.828 8.784a18.041 18.041 0 0 0-7.828-8.784zM13.684 17.475a10.597 10.597 0 0 1 5.199-7.87 18.064 18.064 0 0 0-5.199 7.87z" fill="#364D70"/>
        <path d="M13.357 21.176c-.474 8.182 2.55 22.559 11.1 30.61 8.549 8.05 13.963 5.917 13.963 5.917" stroke="#111F33" stroke-width="1.578"/>
        <path d="M61.377 12.104c1.736 12.938-1.47 30.763-10.019 38.814-8.55 8.05-13.49 6.706-13.49 6.706M37.552 57.94c-1.262.236-3.613 1.625-2.919 5.285" stroke="#111F33" stroke-width="1.578"/>
        <path d="M39.919 57.94c1.262.236 3.613 1.625 2.919 5.285" stroke="#111F33" stroke-width="1.578"/>
        <rect x="36.132" y="56.677" width="5.365" height="2.682" rx="1.341" fill="url(#dbrta1g0on)"/>
        <path fill-rule="evenodd" clip-rule="evenodd" d="M36.132 58h5.365a1.341 1.341 0 0 0-1.341-1.323h-2.683c-.734 0-1.331.59-1.34 1.323z" fill="#5575A0"/>
        <path fill-rule="evenodd" clip-rule="evenodd" d="M18.205 20.878a4.936 4.936 0 0 1 4.487-5.348l26.676-2.334a4.936 4.936 0 0 1 5.347 4.487l1.93 22.053c.111 1.275-.302 2.538-1.388 3.217-2.11 1.32-6.698 3.333-15.733 4.124-8.906.779-14.275-.318-16.991-1.212-1.454-.478-2.303-1.84-2.436-3.364l-1.892-21.623z" fill="#1B283E"/>
        <path d="M18.205 20.878a4.936 4.936 0 0 1 4.487-5.348l26.676-2.334a4.936 4.936 0 0 1 5.347 4.487l1.93 22.053c.111 1.275-.302 2.538-1.388 3.217-2.11 1.32-6.698 3.333-15.733 4.124-8.906.779-14.275-.318-16.991-1.212-1.454-.478-2.303-1.84-2.436-3.364l-1.892-21.623z" fill="url(#97llf6om9o)"/>
        <mask id="ly4rnti0gp" style="mask-type:luminance" maskUnits="userSpaceOnUse" x="18" y="13" width="39" height="35">
            <path d="M18.205 20.878a4.936 4.936 0 0 1 4.487-5.348l26.676-2.334a4.936 4.936 0 0 1 5.348 4.487l1.929 22.053c.112 1.275-.302 2.538-1.388 3.217-2.11 1.32-6.698 3.333-15.733 4.124-8.906.779-14.275-.318-16.991-1.212-1.454-.478-2.303-1.84-2.436-3.364l-1.892-21.623z" fill="#fff"/>
        </mask>
        <g filter="url(#6npyea1zvq)" mask="url(#ly4rnti0gp)">
            <path d="M42.531 41.821c-.893.189-1.835-.07-2.586-.707a.874.874 0 0 1-.169-1.119c.228-.345.673-.403.994-.13.414.352.934.494 1.426.39.493-.103.91-.443 1.144-.933.181-.378.612-.505.961-.282.35.224.485.712.303 1.09-.424.886-1.18 1.503-2.073 1.691z" fill="url(#taebiqneir)"/>
        </g>
        <path opacity=".65" d="M22.725 15.905 49.4 13.571a4.56 4.56 0 0 1 4.94 4.145l1.93 22.053c.103 1.184-.284 2.285-1.213 2.865-2.047 1.28-6.574 3.28-15.566 4.067-8.862.776-14.178-.317-16.84-1.194-1.277-.42-2.055-1.625-2.18-3.038L18.58 20.845a4.56 4.56 0 0 1 4.145-4.94z" stroke="url(#6t2tst9aos)" stroke-width=".753"/>
        <mask id="vfa6vm0m1t" style="mask-type:luminance" maskUnits="userSpaceOnUse" x="18" y="13" width="39" height="35">
            <path d="M22.725 15.908 49.4 13.574a4.56 4.56 0 0 1 4.94 4.145l1.93 22.052c.103 1.185-.284 2.285-1.213 2.865-2.047 1.28-6.574 3.281-15.566 4.068-8.862.775-14.178-.318-16.84-1.194-1.277-.42-2.055-1.625-2.18-3.039L18.58 20.847a4.56 4.56 0 0 1 4.145-4.94z" fill="#fff" stroke="#fff" stroke-width=".753"/>
        </mask>
        <g mask="url(#vfa6vm0m1t)">
            <ellipse opacity=".778" cx="28.589" cy="21.183" rx="20.28" ry="20.604" transform="rotate(-5 28.589 21.183)" fill="url(#33oqnfnzsu)"/>
        </g>
        <g filter="url(#7n6x97gwgv)">
            <path d="M20.917 28.363a3.659 3.659 0 0 1 3.303-3.933l24.073-2.278a3.659 3.659 0 1 1 .69 7.285l-12.329 1.166-11.745 1.112a3.659 3.659 0 0 1-3.992-3.352z" fill="url(#ni8ih1yl2w)"/>
        </g>
        <path fill-rule="evenodd" clip-rule="evenodd" d="m40.503 11.865-1.139.1a.573.573 0 0 1-.615-.527.573.573 0 0 1 .514-.625l1.14-.1a.573.573 0 0 1 .614.527.573.573 0 0 1-.514.625zM42.491 10.096l-1.139.1a.573.573 0 0 1-.615-.527.573.573 0 0 1 .514-.626l1.14-.1a.573.573 0 0 1 .614.527.573.573 0 0 1-.514.626zM48.441 11.171l-6.238.546a.574.574 0 0 1-.618-.527.575.575 0 0 1 .518-.625l6.235-.546a.574.574 0 0 1 .619.526.575.575 0 0 1-.518.626h.002zM50.404 9.404l-6.19.542a.586.586 0 0 1-.642-.525.586.586 0 0 1 .54-.627l6.191-.542a.586.586 0 0 1 .642.524.586.586 0 0 1-.54.628z" fill="#243552"/>
        <ellipse opacity=".157" cx="23.775" cy="29.03" rx="10.506" ry="10.46" transform="rotate(-6 23.775 29.03)" fill="url(#7garicgabx)"/>
        <mask id="8o69neiisy" style="mask-type:luminance" maskUnits="userSpaceOnUse" x="13" y="18" width="22" height="22">
            <ellipse cx="23.775" cy="29.03" rx="10.506" ry="10.46" transform="rotate(-6 23.775 29.03)" fill="#fff"/>
        </mask>
        <g mask="url(#8o69neiisy)">
            <path opacity=".2" fill-rule="evenodd" clip-rule="evenodd" d="m22.292 19.795-6.33 15.913 6.694 3.309 6.22-17.774-6.584-1.448z" fill="url(#2ugisg0c9z)"/>
        </g>
        <ellipse opacity=".157" cx="50.846" cy="26.184" rx="10.506" ry="10.46" transform="rotate(-6 50.846 26.184)" fill="url(#sxmbxzxjfA)"/>
        <mask id="2p9f4mn6nB" style="mask-type:luminance" maskUnits="userSpaceOnUse" x="40" y="15" width="22" height="22">
            <ellipse cx="50.846" cy="26.184" rx="10.506" ry="10.46" transform="rotate(-6 50.846 26.184)" fill="#fff"/>
        </mask>
        <g mask="url(#2p9f4mn6nB)">
            <path opacity=".2" fill-rule="evenodd" clip-rule="evenodd" d="m49.309 16.955-6.33 15.913 6.693 3.31 6.22-17.775-6.584-1.448z" fill="url(#eds5efiovC)"/>
        </g>
        <path fill-rule="evenodd" clip-rule="evenodd" d="M51.655 36.044c-5.34.562-10.12-3.282-10.677-8.584-.557-5.302 3.32-10.055 8.659-10.616 5.34-.562 10.12 3.282 10.677 8.584.557 5.302-3.32 10.055-8.659 10.616zM24.66 38.88c-5.34.561-10.12-3.282-10.677-8.584-.557-5.302 3.32-10.055 8.659-10.616 5.34-.561 10.12 3.282 10.677 8.584.557 5.302-3.32 10.055-8.66 10.616zm35.586-19.398c-.905-.84-2.564-1.878-3.554-2.467a11.244 11.244 0 0 0-.786-.457l-.017-.01v.001a11.253 11.253 0 0 0-6.41-1.217 11.257 11.257 0 0 0-7.583 4.102c-.885 1.013-1.626 2.099-2.398 3.167-.977 1.354-1.697.815-2.804.932-1.108.116-1.7.792-2.937-.329-.977-.884-1.927-1.792-3.004-2.6a11.338 11.338 0 0 0-8.304-2.431c-2.3.242-4.5 1.17-6.05 2.527l-.001-.001.019.01c-.234.194-.441.396-.658.608-.846.782-2.293 2.146-3.004 3.156-1.055 1.501-3.668 1.869-3.668 1.869l.3 2.84s1.559-.256 2.129.287c.337.32.838 1.978 1.552 3.694.228.614.52 1.198.846 1.753.308.553.654 1.06 1.03 1.465l.003-.003a11.263 11.263 0 0 0 9.87 4.016 11.257 11.257 0 0 0 9.51-7.601l.007-.012.021-.045c.661-1.439 1.08-5.232 1.384-5.86.306-.635 1.224-.777 1.224-.777s.928-.052 1.36.506c.427.55 1.626 4.174 2.571 5.443l.031.04.01.01a11.256 11.256 0 0 0 10.88 5.459 11.26 11.26 0 0 0 8.818-5.98v.002c.285-.475.511-1.041.697-1.646.204-.61.358-1.242.452-1.89.342-1.827.46-3.55.723-3.934.445-.649 1.974-.717 1.974-.717l-.299-2.841s-2.59.18-3.934-1.069z" fill="#090E17"/>
        <path d="m60.245 19.482.228-.246-.228.246zm-3.554-2.467-.18.284.008.005.172-.289zm-.786-.457-.169.291.012.006.157-.297zm-.017-.01.168-.29-.48.415.312-.125zm0 .001-.156.298.468-.423-.312.125zm-13.993 2.885.253.221.008-.01-.261-.211zM39.497 22.6l-.272-.197.272.197zm-5.74.603.225-.249-.226.25zm-3.005-2.6-.211.263.01.007.201-.27zm-14.355.096-.334.035.555.218-.22-.253zm0-.001.156-.298-.49.333.334-.035zm.019.01.214.258-.058-.556-.156.297zm-.658.608.228.247.007-.006-.235-.24zm-3.004 3.156-.274-.193.274.193zm-3.668 1.869-.046-.333-.288.368.334-.035zm.3 2.84-.335.036.389.296-.055-.331zm2.129.287-.232.243.232-.244zm1.552 3.694.316-.117-.005-.012-.31.129zm.846 1.753.294-.163-.004-.007-.29.17zm1.03 1.465-.246.229.494-.001-.248-.228zm.003-.003.259-.214-.506-.013.247.227zm19.38-3.585-.284-.182-.035.075.318.107zm.007-.012.282.182.022-.038-.304-.144zm.021-.045.304.143.002-.003-.306-.14zm1.384-5.86.303.146-.303-.146zm1.224-.777-.018-.336-.033.004.051.332zm1.36.506-.266.205.266-.205zm2.571 5.443-.27.201.003.003.267-.204zm.031.04-.267.204.02.025.247-.229zm.01.01.289-.17-.044-.058-.246.228zm19.698-.522.315-.116-.613-.04.298.156zm0 .003-.314.116.603.057-.288-.173zm.697-1.646-.319-.107-.002.008.321.099zm.452-1.89-.33-.062-.002.013.332.049zm.723-3.934.277.19-.277-.19zm1.974-.717.015.336.319-.37-.334.034zm-.299-2.841.334-.035-.357-.3.023.335zm-3.934-1.069-.229.246.229-.246zM51.62 35.71c-5.157.542-9.77-3.17-10.307-8.285l-.669.07c.577 5.49 5.524 9.464 11.046 8.884l-.07-.669zm-10.307-8.285c-.538-5.115 3.202-9.705 8.36-10.247l-.071-.669c-5.522.58-9.535 5.497-8.958 10.986l.669-.07zm8.36-10.247c5.156-.542 9.77 3.17 10.307 8.285l.668-.07c-.577-5.49-5.524-9.464-11.046-8.884l.07.669zm10.307 8.285c.537 5.115-3.203 9.705-8.36 10.247l.07.669c5.522-.58 9.535-5.497 8.958-10.986l-.668.07zM24.624 38.546c-5.157.542-9.77-3.17-10.308-8.285l-.668.07c.577 5.49 5.524 9.464 11.046 8.884l-.07-.669zm-10.308-8.285c-.537-5.115 3.203-9.705 8.36-10.247l-.07-.668c-5.522.58-9.535 5.496-8.958 10.985l.668-.07zm8.36-10.247c5.157-.542 9.77 3.17 10.307 8.285l.669-.07c-.577-5.49-5.524-9.464-11.046-8.883l.07.668zm10.307 8.285c.538 5.115-3.202 9.705-8.36 10.247l.071.669c5.522-.58 9.535-5.497 8.958-10.986l-.669.07zm27.49-9.063c-.934-.869-2.624-1.923-3.61-2.51l-.344.578c.994.591 2.623 1.612 3.497 2.424l.458-.492zM56.87 16.73c-.262-.166-.53-.324-.809-.47l-.313.594c.26.137.513.286.763.444l.36-.568zm-.797-.464-.017-.01-.337.582.018.01.336-.582zm-.497.406v.002l.624-.251v-.001l-.624.25zm.468-.422a11.59 11.59 0 0 0-6.601-1.253l.07.668a10.92 10.92 0 0 1 6.22 1.181l.31-.596zm-6.601-1.253a11.593 11.593 0 0 0-7.809 4.224l.522.424a10.921 10.921 0 0 1 7.357-3.98l-.07-.668zm-7.801 4.215c-.899 1.028-1.653 2.133-2.417 3.191l.544.394c.78-1.078 1.507-2.145 2.38-3.143l-.507-.442zm-2.417 3.191c-.228.315-.427.501-.603.614-.173.11-.339.16-.516.179-.186.02-.38.01-.627-.004a5.028 5.028 0 0 0-.821.006l.07.668c.248-.026.476-.016.715-.003.23.012.485.03.738 0 .264-.029.53-.106.802-.28.268-.17.525-.424.787-.786l-.545-.394zm-2.567.795a5.023 5.023 0 0 0-.805.165c-.238.064-.426.116-.613.134-.177.018-.349.004-.54-.068-.197-.073-.43-.214-.718-.475l-.451.498c.33.3.635.495.933.607.301.113.578.133.842.107.254-.025.5-.094.722-.154.23-.063.452-.12.7-.146l-.07-.668zm-2.676-.244c-.968-.876-1.935-1.8-3.028-2.619l-.403.538c1.06.795 1.994 1.687 2.98 2.58l.45-.499zm-3.019-2.612a11.674 11.674 0 0 0-8.55-2.504l.07.668a11.002 11.002 0 0 1 8.058 2.36l.422-.524zm-8.55-2.504c-2.361.248-4.629 1.2-6.237 2.608l.442.506c1.494-1.307 3.628-2.21 5.865-2.446l-.07-.668zm-5.682 2.826v-.002l-.668.07v.002l.668-.07zm-.49.331.019.01.312-.595-.02-.01-.311.595zm-.04-.546c-.246.204-.463.417-.678.627l.47.48c.218-.213.416-.406.637-.59l-.429-.517zm-.67.62c-.84.776-2.316 2.165-3.052 3.21l.55.387c.686-.975 2.104-2.314 2.957-3.103l-.456-.494zm-3.052 3.21c-.466.663-1.3 1.101-2.067 1.374a8.295 8.295 0 0 1-1.348.351l-.02.003a.21.21 0 0 1-.004 0l.046.334.047.332h.003l.007-.001a3.836 3.836 0 0 0 .116-.02 8.95 8.95 0 0 0 1.378-.367c.804-.285 1.803-.782 2.392-1.62l-.55-.386zm-3.727 2.097.299 2.84.668-.07-.298-2.84-.669.07zm.633 2.806.055.331h.002l.011-.002.046-.006a5.088 5.088 0 0 1 .735-.048c.216.002.438.02.632.064.199.046.337.113.417.19l.464-.487c-.205-.194-.475-.299-.73-.358a3.655 3.655 0 0 0-.778-.08 5.995 5.995 0 0 0-.831.053l-.055.008a1.758 1.758 0 0 0-.016.002h-.004l-.002.001.054.332zm1.899.53c.031.03.103.136.21.368.1.216.214.498.342.832.253.66.562 1.515.921 2.379l.62-.258c-.354-.853-.654-1.684-.914-2.362a14.611 14.611 0 0 0-.359-.874c-.103-.223-.22-.443-.358-.573l-.462.487zm1.468 3.566c.236.637.538 1.24.871 1.807l.58-.34a10.73 10.73 0 0 1-.82-1.7l-.63.233zm.868 1.8c.316.57.677 1.1 1.077 1.53l.493-.456c-.353-.38-.684-.863-.983-1.4l-.587.327zm1.57 1.53.004-.004-.495-.454-.003.003.495.455zm-.503-.017a11.599 11.599 0 0 0 10.165 4.136l-.07-.668a10.927 10.927 0 0 1-9.577-3.896l-.518.428zm10.165 4.136a11.593 11.593 0 0 0 9.792-7.828l-.637-.214a10.921 10.921 0 0 1-9.226 7.374l.07.668zm9.756-7.753.008-.012-.566-.364-.008.012.566.364zm.029-.05.021-.046-.608-.287-.021.046.608.287zm.023-.05c.351-.764.628-2.118.85-3.311.114-.61.214-1.18.306-1.644.046-.232.089-.43.128-.589.042-.165.075-.264.096-.309l-.605-.292c-.054.112-.1.27-.143.438-.043.174-.088.386-.135.621-.093.468-.195 1.054-.307 1.651-.228 1.22-.492 2.482-.801 3.155l.61.28zm1.38-5.853c.102-.21.319-.361.558-.464a2.082 2.082 0 0 1 .413-.127h.004l-.053-.332-.051-.332h-.006l-.011.003a2.342 2.342 0 0 0-.163.036 2.76 2.76 0 0 0-.398.135c-.297.127-.692.364-.898.79l.605.291zm.922-.923.019.335c-.001 0 0 0 0 0h.026l.093.001c.081.004.193.013.315.037.255.051.499.154.641.338l.532-.411c-.29-.373-.725-.523-1.042-.586a2.76 2.76 0 0 0-.584-.05h-.017l.017.336zm1.094.712c.03.039.084.128.159.281.071.147.154.333.247.55.187.435.403.972.641 1.544.466 1.12 1.018 2.388 1.52 3.063l.54-.402c-.443-.594-.963-1.773-1.44-2.919-.233-.561-.455-1.112-.643-1.551-.094-.22-.182-.418-.262-.58a2.444 2.444 0 0 0-.23-.398l-.532.412zm2.57 5.44.03.04.535-.406-.03-.04-.535.407zm.052.066.01.01.491-.457-.009-.01-.492.457zm-.034-.048a11.592 11.592 0 0 0 11.205 5.622l-.07-.669a10.92 10.92 0 0 1-10.556-5.294l-.58.341zm11.205 5.622a11.596 11.596 0 0 0 9.08-6.159l-.595-.311a10.924 10.924 0 0 1-8.555 5.801l.07.669zm8.467-6.199.002.003.63-.232v-.003l-.632.232zm.605.06c.303-.507.539-1.1.73-1.72l-.643-.198c-.181.59-.398 1.129-.664 1.573l.577.345zm.727-1.713c.21-.629.368-1.279.466-1.948l-.665-.097a10.69 10.69 0 0 1-.438 1.832l.637.213zm.464-1.935c.172-.921.289-1.82.393-2.52.052-.353.1-.652.152-.884.054-.249.1-.366.124-.4l-.554-.38c-.108.156-.175.398-.227.637-.056.256-.108.574-.16.928-.107.715-.22 1.59-.389 2.496l.66.123zm.67-3.805c.063-.093.183-.187.362-.272.176-.083.382-.146.587-.192a5.02 5.02 0 0 1 .76-.107h.002l-.015-.336-.015-.335h-.022a5.28 5.28 0 0 0-.246.021 5.66 5.66 0 0 0-.61.101 3.523 3.523 0 0 0-.729.24c-.233.111-.47.27-.63.5l.555.38zm2.03-.942-.299-2.841-.668.07.299 2.841.668-.07zm-.633-2.806-.023-.335h-.005l-.019.001a6.696 6.696 0 0 1-.375.006 8.069 8.069 0 0 1-.996-.071c-.794-.109-1.693-.364-2.288-.916l-.457.492c.75.696 1.818.976 2.655 1.09a8.756 8.756 0 0 0 1.496.07l.025-.001H64.202l-.023-.336z" fill="#090E17"/>
        <path opacity=".2" d="M12.488 27.803c-3.471-1.073-.996-5.154.45-6.627l2.864 2.209h27.927l16.567-8.52c.71 1.499 2.777 4.418 0 6.311-3.471 2.367-11.304 6.627-22.01 7.968-5.603.702-21.459 0-25.798-1.341z" fill="#000"/>
        <path d="M63.802-3.602c-4.459-3.244-12.789 3.208-16.396 6.84L24.099 16.605c-1.398 3.848-.466 10.893 14.443 8.29 11.356-1.982 19.07-6.88 22.8-10.328 4.914-4.545 8.033-14.114 2.46-18.17z" fill="url(#rkayf1swvD)"/>
        <path fill-rule="evenodd" clip-rule="evenodd" d="M58.695-4.17c1.908-.514 3.7-.455 5.107.568 5.573 4.056 2.454 13.625-2.46 18.17-3.73 3.448-11.444 8.346-22.8 10.328-2.138.373-3.988.548-5.585.563.734-.087 1.507-.2 2.323-.343 11.356-1.982 19.07-6.88 22.8-10.329 4.914-4.544 8.033-14.113 2.46-18.169a4.537 4.537 0 0 0-1.845-.788z" fill="#3E587D"/>
        <mask id="dsh4gnu2eE" style="mask-type:alpha" maskUnits="userSpaceOnUse" x="14" y="-9" width="40" height="33">
            <path d="M22.633-5.983c2.29-2.258 2.92 1.833 9.643.935 6.722-.899 3.272-5.686 9.497-.935C47.909-1.3 53.21 8.861 53.21 14.626c0 2.806-10.669 5.33-18.696 6.384-17.537 2.302-18.073 4.738-19.25-3.471-.968-6.755.474-16.725 7.368-23.522z" fill="#733E26"/>
        </mask>
        <g mask="url(#dsh4gnu2eE)">
            <path transform="rotate(-7.219 10.517 -5.228)" fill="url(#cf0wfejr3F)" d="M10.517-5.228h41.337v25.016H10.517z"/>
            <path opacity=".65" d="M23.076-3.998c3.913 1.388 12.307.788 16.251.788 1.999-.552-1 6.9-4.327 7.71-3.327.81-6.069-3.22-10.5-2-5.818 1.601-7.5 12.435-9.314 11.33-1.814-1.104 2.998-19.564 7.89-17.828z" fill="#516E98"/>
            <path d="M10.137 9.519s5.427 9.526 23.589 7.225c18.161-2.3 22.112-7.225 22.112-7.225l1.114 8.789s-13.863 2.507-22.849 2.894c-8.957.386-20.179-2.328-22.94-.908-3.76 1.933-1.026-10.775-1.026-10.775z" fill="url(#jln0lamt6G)"/>
            <path d="M15.975 14.14s-.568 8.268 17.593 5.968C51.73 17.806 57.551 8.934 57.551 8.934l1.01 11.174s-13.863 2.506-22.85 2.894c-8.957.386-20.178-2.328-22.94-.908-3.759 1.933 3.204-7.953 3.204-7.953z" fill="#000" fill-opacity=".1"/>
        </g>
        <path opacity=".65" d="M12.5 11.5c-.278.313 14.375 13.136 14.375 13.136h14.121l4.576-1.262L18.5 3s-2 4-6 8.5z" fill="url(#3v78fhwcfH)"/>
        <path d="M9.27 5.942c-5.095-.866-11.492 6.11-7.787 10.7 11.573 14.331 39.974 7.655 39.974 7.655s-9.211-1.385-14.042-3.445C16.808 16.328 17.159 7.282 9.27 5.942z" fill="url(#e5sdd2aphI)"/>
        <path opacity=".2" fill-rule="evenodd" clip-rule="evenodd" d="M.47 14.506c.063.09.13.178.2.266 7.972 9.872 21.469 8.652 29.097 6.937 4.97 1.578 11.69 2.588 11.69 2.588s-28.4 6.676-39.974-7.656A4.86 4.86 0 0 1 .47 14.506z" fill="#1F2D43"/>
        <path fill-rule="evenodd" clip-rule="evenodd" d="M.395 13.962C.061 9.774 5.102 5.233 9.27 5.942c3.895.662 5.781 3.202 7.97 6.15 2.243 3.02 4.804 6.47 10.175 8.76 1.666.71 3.853 1.341 6.003 1.862-1.841-.295-3.616-.629-5.057-.994-5.959-1.51-8.793-4.953-11.335-8.041-2.227-2.705-4.23-5.139-7.914-5.765C5.728 7.34 1.66 10.458.395 13.962z" fill="#2A3E5B"/>
    </g>
    <defs>
        <linearGradient id="8nkmnijhib" x1="38.864" y1="49.5" x2="40.62" y2="73.874" gradientUnits="userSpaceOnUse">
            <stop stop-color="#6083B0"/>
            <stop offset="1" stop-color="#32486B"/>
        </linearGradient>
        <linearGradient id="xhcd4kc2rc" x1="23.425" y1="55.5" x2="29.041" y2="77.035" gradientUnits="userSpaceOnUse">
            <stop stop-color="#6083B0"/>
            <stop offset="1" stop-color="#32486B"/>
        </linearGradient>
        <linearGradient id="nqx4cuwokd" x1="54" y1="55.496" x2="59.617" y2="77.034" gradientUnits="userSpaceOnUse">
            <stop stop-color="#6083B0"/>
            <stop offset="1" stop-color="#32486B"/>
        </linearGradient>
        <linearGradient id="tzd392oj8e" x1="29.252" y1="65.81" x2="28.421" y2="75.469" gradientUnits="userSpaceOnUse">
            <stop stop-color="#101928" stop-opacity=".383"/>
            <stop offset="1" stop-color="#162236" stop-opacity="0"/>
        </linearGradient>
        <linearGradient id="fzctmgtinf" x1="23.289" y1="58.06" x2="28.459" y2="78.48" gradientUnits="userSpaceOnUse">
            <stop stop-color="#101928" stop-opacity=".383"/>
            <stop offset="1" stop-color="#162236" stop-opacity="0"/>
        </linearGradient>
        <linearGradient id="ba2od0k58g" x1="52.576" y1="65.535" x2="49.258" y2="75.796" gradientUnits="userSpaceOnUse">
            <stop stop-color="#101928" stop-opacity=".383"/>
            <stop offset="1" stop-color="#162236" stop-opacity="0"/>
        </linearGradient>
        <linearGradient id="zfnr8loewh" x1="50.07" y1="57.76" x2="47.813" y2="75.653" gradientUnits="userSpaceOnUse">
            <stop stop-color="#101928" stop-opacity=".383"/>
            <stop offset="1" stop-color="#162236" stop-opacity="0"/>
        </linearGradient>
        <linearGradient id="rky7wt8yyi" x1="35.82" y1="45.319" x2="35.225" y2="58.144" gradientUnits="userSpaceOnUse">
            <stop stop-color="#5B79A2"/>
            <stop offset="1" stop-color="#132A51"/>
        </linearGradient>
        <linearGradient id="k53j9h8xrm" x1="29.5" y1="31" x2="30.927" y2="64.588" gradientUnits="userSpaceOnUse">
            <stop stop-color="#6083B0"/>
            <stop offset=".921" stop-color="#32486B"/>
        </linearGradient>
        <linearGradient id="dbrta1g0on" x1="36.362" y1="56.721" x2="36.676" y2="60.248" gradientUnits="userSpaceOnUse">
            <stop stop-color="#6083B0"/>
            <stop offset="1" stop-color="#32486B"/>
        </linearGradient>
        <linearGradient id="97llf6om9o" x1="4.16" y1="38.634" x2="40.264" y2="72.55" gradientUnits="userSpaceOnUse">
            <stop stop-color="#233249"/>
            <stop offset="1" stop-color="#0F1723"/>
        </linearGradient>
        <linearGradient id="6t2tst9aos" x1="105.135" y1="39.428" x2="58.545" y2="-11.828" gradientUnits="userSpaceOnUse">
            <stop stop-color="#76E1FF"/>
            <stop offset="1" stop-color="#637BFF" stop-opacity=".01"/>
        </linearGradient>
        <linearGradient id="33oqnfnzsu" x1="-6.407" y1="20.328" x2="32.602" y2="60.161" gradientUnits="userSpaceOnUse">
            <stop stop-color="#587CB9"/>
            <stop offset="1" stop-color="#2E4469" stop-opacity=".01"/>
        </linearGradient>
        <linearGradient id="7garicgabx" x1="34.016" y1="18.57" x2="13.533" y2="18.57" gradientUnits="userSpaceOnUse">
            <stop stop-color="#21C8F6"/>
            <stop offset="1" stop-color="#637BFF"/>
        </linearGradient>
        <linearGradient id="2ugisg0c9z" x1="28.474" y1="19.145" x2="14.557" y2="20.608" gradientUnits="userSpaceOnUse">
            <stop stop-color="#21C8F6"/>
            <stop offset="1" stop-color="#637BFF"/>
        </linearGradient>
        <linearGradient id="sxmbxzxjfA" x1="61.087" y1="15.724" x2="40.604" y2="15.724" gradientUnits="userSpaceOnUse">
            <stop stop-color="#21C8F6"/>
            <stop offset="1" stop-color="#637BFF"/>
        </linearGradient>
        <linearGradient id="eds5efiovC" x1="55.49" y1="16.305" x2="41.573" y2="17.768" gradientUnits="userSpaceOnUse">
            <stop stop-color="#21C8F6"/>
            <stop offset="1" stop-color="#637BFF"/>
        </linearGradient>
        <linearGradient id="rkayf1swvD" x1="23.172" y1=".668" x2="43.414" y2="28.902" gradientUnits="userSpaceOnUse">
            <stop stop-color="#6083B0"/>
            <stop offset="1" stop-color="#32486B"/>
        </linearGradient>
        <linearGradient id="cf0wfejr3F" x1="11.835" y1="-15.511" x2="20.742" y2="25.766" gradientUnits="userSpaceOnUse">
            <stop stop-color="#6083B0"/>
            <stop offset="1" stop-color="#32486B"/>
        </linearGradient>
        <linearGradient id="jln0lamt6G" x1="55.806" y1="13.876" x2="11.26" y2="19.518" gradientUnits="userSpaceOnUse">
            <stop stop-color="#21C8F6"/>
            <stop offset="1" stop-color="#637BFF"/>
        </linearGradient>
        <linearGradient id="3v78fhwcfH" x1="26" y1="21" x2="29.118" y2="14.811" gradientUnits="userSpaceOnUse">
            <stop stop-color="#101928" stop-opacity=".5"/>
            <stop offset="1" stop-color="#162236" stop-opacity="0"/>
        </linearGradient>
        <linearGradient id="e5sdd2aphI" x1="13" y1="12" x2="9" y2="22.5" gradientUnits="userSpaceOnUse">
            <stop stop-color="#253650"/>
            <stop offset="1" stop-color="#2E4465"/>
        </linearGradient>
        <radialGradient id="j8gnxop1bj" cx="0" cy="0" r="1" gradientUnits="userSpaceOnUse" gradientTransform="matrix(.9693 15.37027 -17.79784 1.1224 37.067 49.058)">
            <stop stop-color="#5B79A2"/>
            <stop offset="1" stop-color="#132A51"/>
        </radialGradient>
        <radialGradient id="82w05y8z9l" cx="0" cy="0" r="1" gradientUnits="userSpaceOnUse" gradientTransform="matrix(-10.3175 0 0 -.44183 38.59 48.624)">
            <stop stop-color="#172743"/>
            <stop offset="1" stop-opacity=".01"/>
        </radialGradient>
        <radialGradient id="taebiqneir" cx="0" cy="0" r="1" gradientUnits="userSpaceOnUse" gradientTransform="matrix(3.41905 -.72674 1.68059 7.90655 38.822 41.303)">
            <stop stop-color="#21C8F6"/>
            <stop offset="1" stop-color="#4BDEFF"/>
        </radialGradient>
        <radialGradient id="ni8ih1yl2w" cx="0" cy="0" r="1" gradientUnits="userSpaceOnUse" gradientTransform="rotate(-9 200.428 -79.084) scale(21.891 29.3297)">
            <stop stop-color="#21C8F6"/>
            <stop offset="1" stop-color="#4BDEFF"/>
        </radialGradient>
        <filter id="dxl9ts10yk" x="20.022" y="42.551" width="35.742" height="12.962" filterUnits="userSpaceOnUse" color-interpolation-filters="sRGB">
            <feFlood flood-opacity="0" result="BackgroundImageFix"/>
            <feBlend in="SourceGraphic" in2="BackgroundImageFix" result="shape"/>
            <feGaussianBlur stdDeviation="1.793" result="effect1_foregroundBlur_4818_60160"/>
        </filter>
        <filter id="6npyea1zvq" x="34.208" y="33.493" width="15.915" height="13.826" filterUnits="userSpaceOnUse" color-interpolation-filters="sRGB">
            <feFlood flood-opacity="0" result="BackgroundImageFix"/>
            <feColorMatrix in="SourceAlpha" values="0 0 0 0 0 0 0 0 0 0 0 0 0 0 0 0 0 0 127 0" result="hardAlpha"/>
            <feOffset/>
            <feGaussianBlur stdDeviation="2.719"/>
            <feComposite in2="hardAlpha" operator="out"/>
            <feColorMatrix values="0 0 0 0 0.137255 0 0 0 0 0.788235 0 0 0 0 0.968627 0 0 0 1 0"/>
            <feBlend in2="BackgroundImageFix" result="effect1_dropShadow_4818_60160"/>
            <feBlend in="SourceGraphic" in2="effect1_dropShadow_4818_60160" result="shape"/>
        </filter>
        <filter id="7n6x97gwgv" x="15.468" y="16.698" width="42.265" height="20.47" filterUnits="userSpaceOnUse" color-interpolation-filters="sRGB">
            <feFlood flood-opacity="0" result="BackgroundImageFix"/>
            <feColorMatrix in="SourceAlpha" values="0 0 0 0 0 0 0 0 0 0 0 0 0 0 0 0 0 0 127 0" result="hardAlpha"/>
            <feOffset/>
            <feGaussianBlur stdDeviation="2.719"/>
            <feComposite in2="hardAlpha" operator="out"/>
            <feColorMatrix values="0 0 0 0 0.137255 0 0 0 0 0.788235 0 0 0 0 0.968627 0 0 0 1 0"/>
            <feBlend in2="BackgroundImageFix" result="effect1_dropShadow_4818_60160"/>
            <feBlend in="SourceGraphic" in2="effect1_dropShadow_4818_60160" result="shape"/>
        </filter>
    </defs>
</svg>
